module m2sn

go 1.21

require (
	github.com/PuerkitoBio/goquery v1.8.1
	github.com/urfave/cli/v2 v2.26.0
	gopkg.in/yaml.v3 v3.0.1
)

require (
	github.com/andybalholm/cascadia v1.3.1 // indirect
	github.com/cpuguy83/go-md2man/v2 v2.0.2 // indirect
	github.com/russross/blackfriday/v2 v2.1.0 // indirect
	github.com/xrash/smetrics v0.0.0-20201216005158-039620a65673 // indirect
	golang.org/x/net v0.7.0 // indirect
)
